…
*Make a table showing, for the years 2002, 2006, and 2010, the mean and standard deviation of the proportion of “Excellent” responses across locations in NY State.*

``` r
brfss_smart2010 %>%
  filter(response == "Excellent", year == 2002 | year == 2006 | year == 2010) %>% 
  group_by(state, year) %>% 
  summarize(mean = mean(data_value), sd = sd(data_value))
```

    ## # A tibble: 147 x 4
    ## # Groups:   state [?]
    ##    state  year  mean    sd
    ##    <chr> <int> <dbl> <dbl>
    ##  1 AK     2002  27.9 NA   
    ##  2 AL     2002  18.5 NA   
    ##  3 AL     2006  23.2 NA   
    ##  4 AL     2010  18.4  2.63
    ##  5 AR     2002  24.1 NA   
    ##  6 AR     2006  19.6  3.41
    ##  7 AR     2010  25.4  3.16
    ##  8 AZ     2002  24.1  3.54
    ##  9 AZ     2006  20.9  3.86
    ## 10 AZ     2010  21.6  5.24
    ## # ... with 137 more rows
…
